%YAML 1.1
%TAG !u! tag:unity3d.com,2011:
--- !u!114 &11400000
MonoBehaviour:
  m_ObjectHideFlags: 0
  m_CorrespondingSourceObject: {fileID: 0}
  m_PrefabInstance: {fileID: 0}
  m_PrefabAsset: {fileID: 0}
  m_GameObject: {fileID: 0}
  m_Enabled: 1
  m_EditorHideFlags: 0
  m_Script: {fileID: 11500000, guid: 5e8c20aa7bc4a6f4186b7e62e778f700, type: 3}
  m_Name: Cancel
  m_EditorClassIdentifier: 
  Name: Cancel
  Icon: {fileID: 21300000, guid: 393858da27d7b41468e1fbda04577335, type: 3}
  NextRing: {fileID: 0}
